# Curriculum,Year,Term,Prefix,Number,MustHave
https://catalog.msoe.edu/preview_program.php?catoid=31&poid=1710
Finance Version S1,1,1,BUS,1850,Y
Finance Version S1,1,1,BUS,2100,Y
Finance Version S1,1,1,BUS,2221,Y
Finance Version S1,1,1,COM,1001,Y
Finance Version S1,1,1,MTH,1050,Y
Finance Version S1,1,2,BUS,2450,Y
Finance Version S1,1,2,BUS,2660,Y
Finance Version S1,1,2,COM,2001,Y
Finance Version S1,1,2,MTH,2450,Y
Finance Version S1,1,2,ELC,RCd,Y
Finance Version S1,2,1,BUS,2510,Y
Finance Version S1,2,1,BUS,2730,Y
Finance Version S1,2,1,BUS,3420,Y
Finance Version S1,2,1,BUS,3445,Y
Finance Version S1,2,1,COM,3001,Y
Finance Version S1,2,2,BUS,2010,Y
Finance Version S1,2,2,BUS,2330,Y
Finance Version S1,2,2,BUS,2530,Y
Finance Version S1,2,2,BUS,2900,Y
Finance Version S1,2,2,BUS,3400,Y
Finance Version S1,3,1,BUS,2710,Y
Finance Version S1,3,1,BUS,3560,Y
Finance Version S1,3,1,BUS,3593,Y
Finance Version S1,3,1,ELC,ENTP,Y
Finance Version S1,3,1,ELC,Divs,Y
Finance Version S1,3,2,BUS,3580,Y
Finance Version S1,3,2,BUS,4510,Y
Finance Version S1,3,2,ELC,BUS,Y
Finance Version S1,3,2,ELC,MKTG,Y
Finance Version S1,3,2,ELC,OPNS,Y
Finance Version S1,3,2,ELC,Ethi,Y
Finance Version S1,4,1,BUS,3600,Y
Finance Version S1,4,1,BUS,4530,Y
Finance Version S1,4,1,BUS,4801,Y
Finance Version S1,4,1,BUS,4900,Y
Finance Version S1,4,1,ELC,Curi,Y
Finance Version S1,4,2,BUS,4901,Y
Finance Version S1,4,2,ELC,BUS,Y
Finance Version S1,4,2,ELC,BUS,Y
Finance Version S1,4,2,ELC,ENTP,Y
Finance Version S1,4,2,ELC,MGMT,Y
