# Curriculum,Year,Term,Prefix,Number,MustHave
Marketing Transition in Year 2,1,1,BA,1000,N
Marketing Transition in Year 2,1,1,BA,1801,Y
Marketing Transition in Year 2,1,1,GS,1003,Y
Marketing Transition in Year 2,1,1,MA,120,Y
Marketing Transition in Year 2,1,2,BA,1227,N
Marketing Transition in Year 2,1,2,EL,Econ,N
Marketing Transition in Year 2,1,2,GS,1001,Y
Marketing Transition in Year 2,1,2,MA,129,N
Marketing Transition in Year 2,1,3,BA,2442,N
Marketing Transition in Year 2,1,3,EL,LabS,N
Marketing Transition in Year 2,1,3,GS,1002,Y
Marketing Transition in Year 2,1,3,MA,340,Y
Marketing Transition in Year 2,2,1,BUS,2510,Y
Marketing Transition in Year 2,2,1,ELC,HU,N
Marketing Transition in Year 2,2,1,BUS,2660,Y
Marketing Transition in Year 2,2,1,BUS,2450,Y
Marketing Transition in Year 2,2,1,BUS,3445,Y
Marketing Transition in Year 2,2,2,BUS,3670,Y
Marketing Transition in Year 2,2,2,BUS,2530,Y
Marketing Transition in Year 2,2,2,BUS,2900,Y
Marketing Transition in Year 2,2,2,BUS,2010,Y
Marketing Transition in Year 2,2,2,BUS,2330,Y
Marketing Transition in Year 2,3,1,BUS,3650,Y
Marketing Transition in Year 2,3,1,ELC,BUS,Y
Marketing Transition in Year 2,3,1,ELC,BUS,Y
Marketing Transition in Year 2,3,1,ELC,SS,N
Marketing Transition in Year 2,3,1,ELC,BUS,Y
Marketing Transition in Year 2,3,2,BUS,4680,Y
Marketing Transition in Year 2,3,2,BUS,3400,Y
Marketing Transition in Year 2,2,1,BUS,3420,Y
Marketing Transition in Year 2,3,2,ELC,BUS,Y
Marketing Transition in Year 2,3,2,ELC,BUS,N
Marketing Transition in Year 2,3,2,ELC,SS,N
Marketing Transition in Year 2,4,1,BUS,4660,Y
Marketing Transition in Year 2,4,1,BUS,4690,Y
Marketing Transition in Year 2,4,1,BUS,4900,Y
Marketing Transition in Year 2,4,1,ELC,BUS,Y
Marketing Transition in Year 2,4,1,BUS,4801,Y
Marketing Transition in Year 2,4,2,ELC,BUS,Y
Marketing Transition in Year 2,4,2,ELC,BUS,N
Marketing Transition in Year 2,4,2,ELC,BUS,Y
Marketing Transition in Year 2,4,2,BUS,4901,Y
Marketing Transition in Year 2,4,2,ELC,Ethi,Y
