# Curriculum,Year,Term,Prefix,Number,MustHave
Computer Engineering Transition in Year 3,1,1,CS,1011,Y
Computer Engineering Transition in Year 3,1,1,CE,1901,Y
Computer Engineering Transition in Year 3,1,1,MA,136,Y
Computer Engineering Transition in Year 3,1,1,GS,1001,Y
Computer Engineering Transition in Year 3,1,2,CS,1021,Y
Computer Engineering Transition in Year 3,1,2,CE,1911,Y
Computer Engineering Transition in Year 3,1,2,MA,137,Y
Computer Engineering Transition in Year 3,1,2,GS,1002,Y
Computer Engineering Transition in Year 3,1,3,CS,2852,Y
Computer Engineering Transition in Year 3,1,3,CE,1921,Y
Computer Engineering Transition in Year 3,1,3,MA,2314,Y
Computer Engineering Transition in Year 3,1,3,GS,1003,Y
Computer Engineering Transition in Year 3,2,1,CE,2801,Y
Computer Engineering Transition in Year 3,2,1,EE,2050,Y
Computer Engineering Transition in Year 3,2,1,MA,235,Y
Computer Engineering Transition in Year 3,2,1,PH,2011,Y
Computer Engineering Transition in Year 3,2,2,CE,2812,Y
Computer Engineering Transition in Year 3,2,2,EE,2060,Y
Computer Engineering Transition in Year 3,2,2,MA,2323,N
Computer Engineering Transition in Year 3,2,2,PH,2021,Y
Computer Engineering Transition in Year 3,2,3,CE,2820,Y
Computer Engineering Transition in Year 3,2,3,EE,2070,Y
Computer Engineering Transition in Year 3,2,3,MA,262,Y
Computer Engineering Transition in Year 3,2,3,PH,2031,Y
Computer Engineering Transition in Year 3,2,3,SE,2030,N
Computer Engineering Transition in Year 3,3,1,BUS,2411,Y
Computer Engineering Transition in Year 3,3,1,CPE,2600,Y
Computer Engineering Transition in Year 3,3,1,ELE,3101,Y
Computer Engineering Transition in Year 3,3,1,IDS,2020,Y
Computer Engineering Transition in Year 3,3,1,MTH,2310,Y
Computer Engineering Transition in Year 3,3,1,ELC,Ethi,Y
Computer Engineering Transition in Year 3,3,2,BUS,3420,Y
Computer Engineering Transition in Year 3,3,2,CPE,3300,Y
Computer Engineering Transition in Year 3,3,2,ELC,SS,N
Computer Engineering Transition in Year 3,3,2,ELE,3300,Y
Computer Engineering Transition in Year 3,3,2,MTH,2340,Y
Computer Engineering Transition in Year 3,4,1,ELC,Prog,N
Computer Engineering Transition in Year 3,4,1,CPE,4901,Y
Computer Engineering Transition in Year 3,4,1,ELE,3320,Y
Computer Engineering Transition in Year 3,4,1,ELC,Free,N
Computer Engineering Transition in Year 3,4,1,PHY,3700,Y
Computer Engineering Transition in Year 3,4,2,CPE,4800,Y
Computer Engineering Transition in Year 3,4,2,CPE,4902,Y
Computer Engineering Transition in Year 3,4,2,ELC,HU,N
Computer Engineering Transition in Year 3,4,2,ELC,SS,N
