# Curriculum,Year,Term,Prefix,Number,MustHave
Industrial Engineering Transition in Year 2,1,1,CH,200,Y
Industrial Engineering Transition in Year 2,1,1,GS,1001,Y
Industrial Engineering Transition in Year 2,1,1,IE,1000,Y
Industrial Engineering Transition in Year 2,1,1,MA,136,Y
Industrial Engineering Transition in Year 2,1,2,GS,1002,Y
Industrial Engineering Transition in Year 2,1,2,MA,137,Y
Industrial Engineering Transition in Year 2,1,2,ME,1601,Y
Industrial Engineering Transition in Year 2,1,2,PH,2011,Y
Industrial Engineering Transition in Year 2,1,3,CH,201,Y
Industrial Engineering Transition in Year 2,1,3,GS,1003,Y
Industrial Engineering Transition in Year 2,1,3,IE,1190,Y
Industrial Engineering Transition in Year 2,1,3,MA,2314,Y
Industrial Engineering Transition in Year 2,2,1,MTH,2130,Y
Industrial Engineering Transition in Year 2,2,1,MTH,2680,Y
Industrial Engineering Transition in Year 2,2,1,PHY,1110,Y
Industrial Engineering Transition in Year 2,2,1,ELC,HU,N
Industrial Engineering Transition in Year 2,2,1,ELC,SS,N
Industrial Engineering Transition in Year 2,2,2,MTH,2340,Y
Industrial Engineering Transition in Year 2,2,2,ELE,2001,Y
Industrial Engineering Transition in Year 2,2,2,IND,2030,Y
Industrial Engineering Transition in Year 2,2,2,MEC,2501,Y
Industrial Engineering Transition in Year 2,2,2,PHY,1120,Y
Industrial Engineering Transition in Year 2,3,1,IND,2700,Y
Industrial Engineering Transition in Year 2,3,1,IND,3400,Y
Industrial Engineering Transition in Year 2,3,1,IND,3600,Y
Industrial Engineering Transition in Year 2,3,1,IND,3700,Y
Industrial Engineering Transition in Year 2,3,1,IND,3810,Y
Industrial Engineering Transition in Year 2,3,2,IND,3210,Y
Industrial Engineering Transition in Year 2,3,2,IND,3410,Y
Industrial Engineering Transition in Year 2,3,2,IND,3820,Y
Industrial Engineering Transition in Year 2,3,2,PHL,3101,Y
Industrial Engineering Transition in Year 2,3,2,ELC,Prog,N
Industrial Engineering Transition in Year 2,4,1,IND,4310,Y
Industrial Engineering Transition in Year 2,4,1,IND,4320,Y
Industrial Engineering Transition in Year 2,4,1,IND,4830,Y
Industrial Engineering Transition in Year 2,4,1,IND,4901,Y
Industrial Engineering Transition in Year 2,4,1,ELC,Prog,N
Industrial Engineering Transition in Year 2,4,1,ELC,Free,N
Industrial Engineering Transition in Year 2,4,2,IND,4330,Y
Industrial Engineering Transition in Year 2,4,2,IND,4902,Y
Industrial Engineering Transition in Year 2,4,2,ELC,Prog,N
Industrial Engineering Transition in Year 2,4,2,ELC,SS,N
Industrial Engineering Transition in Year 2,4,2,ELC,Free,N
