# Curriculum,Year,Term,Prefix,Number,MustHave
https://catalog.msoe.edu/preview_program.php?catoid=29&poid=1540
Civil Engineering (Transportation) V3.3,1,1,CV,1001,Y
Civil Engineering (Transportation) V3.3,1,1,GS,1001,Y
Civil Engineering (Transportation) V3.3,1,1,MA,136,Y
Civil Engineering (Transportation) V3.3,1,1,PH,2011,Y
Civil Engineering (Transportation) V3.3,1,2,CV,1002,Y
Civil Engineering (Transportation) V3.3,1,2,GS,1002,Y
Civil Engineering (Transportation) V3.3,1,2,MA,137,Y
Civil Engineering (Transportation) V3.3,1,2,CH,200,Y
Civil Engineering (Transportation) V3.3,1,3,AE,1231,Y
Civil Engineering (Transportation) V3.3,1,3,GS,1003,Y
Civil Engineering (Transportation) V3.3,1,3,MA,2314,Y
Civil Engineering (Transportation) V3.3,1,3,CH,201,Y
Civil Engineering (Transportation) V3.3,2,1,AE,200,Y
Civil Engineering (Transportation) V3.3,2,1,CM,2200,Y
Civil Engineering (Transportation) V3.3,2,1,CM,2121,Y
Civil Engineering (Transportation) V3.3,2,1,GE,205,Y
Civil Engineering (Transportation) V3.3,2,1,MA,2323,Y
Civil Engineering (Transportation) V3.3,2,1,PH,2021,Y
Civil Engineering (Transportation) V3.3,2,2,AE,2011,Y
Civil Engineering (Transportation) V3.3,2,2,AE,2121,Y
Civil Engineering (Transportation) V3.3,2,2,CV,2001,Y
Civil Engineering (Transportation) V3.3,2,2,CV,380,Y
Civil Engineering (Transportation) V3.3,2,2,MA,262,Y
Civil Engineering (Transportation) V3.3,2,3,AE,2012,Y
Civil Engineering (Transportation) V3.3,2,3,AE,2130,Y
Civil Engineering (Transportation) V3.3,2,3,AE,2250,Y
Civil Engineering (Transportation) V3.3,2,3,MA,235,Y
Civil Engineering (Transportation) V3.3,2,3,EL,PC,Y
Civil Engineering (Transportation) V3.3,3,1,AE,3201,Y
Civil Engineering (Transportation) V3.3,3,1,CV,310,Y
Civil Engineering (Transportation) V3.3,3,1,CM,4311,Y
Civil Engineering (Transportation) V3.3,3,1,CV,320,Y
Civil Engineering (Transportation) V3.3,3,1,GE,305,Y
Civil Engineering (Transportation) V3.3,3,2,EL,TRPE,Y
Civil Engineering (Transportation) V3.3,3,2,CM,3250,Y
Civil Engineering (Transportation) V3.3,3,2,CV,3500,Y
Civil Engineering (Transportation) V3.3,3,2,BA,2220,Y
Civil Engineering (Transportation) V3.3,3,3,CV,3310,Y
Civil Engineering (Transportation) V3.3,3,3,CM,3210,Y
Civil Engineering (Transportation) V3.3,3,3,BA,2501,Y
Civil Engineering (Transportation) V3.3,3,3,EL,MS,Y
Civil Engineering (Transportation) V3.3,3,3,SC,370,Y
Civil Engineering (Transportation) V3.3,4,1,BA,3411,Y
Civil Engineering (Transportation) V3.3,4,1,EN,441,Y
Civil Engineering (Transportation) V3.3,4,1,GE,405,Y
Civil Engineering (Transportation) V3.3,4,1,IE,423,Y
Civil Engineering (Transportation) V3.3,4,1,EL,HU,Y
Civil Engineering (Transportation) V3.3,4,1,CV,3320,Y
Civil Engineering (Transportation) V3.3,4,2,CM,3024,Y
Civil Engineering (Transportation) V3.3,4,2,CV,4900,Y
Civil Engineering (Transportation) V3.3,4,2,EL,SS,Y
Civil Engineering (Transportation) V3.3,4,2,EL,HU,Y
Civil Engineering (Transportation) V3.3,4,3,CV,4920,Y
Civil Engineering (Transportation) V3.3,4,3,EL,Tech,Y
Civil Engineering (Transportation) V3.3,4,3,HU,432,Y
Civil Engineering (Transportation) V3.3,4,3,EL,SS,Y
Civil Engineering (Transportation) V3.3,4,3,EL,HUSS,Y
Civil Engineering (Transportation) V3.3,4,3,EL,Tech,Y
