# Curriculum,Year,Term,Prefix,Number,MustHave
Civil Engineering (Transportation) Transition in Year 4,1,1,CV,1001,N
Civil Engineering (Transportation) Transition in Year 4,1,1,GS,1001,Y
Civil Engineering (Transportation) Transition in Year 4,1,1,MA,136,Y
Civil Engineering (Transportation) Transition in Year 4,1,1,PH,2011,Y
Civil Engineering (Transportation) Transition in Year 4,1,2,CV,1002,N
Civil Engineering (Transportation) Transition in Year 4,1,2,GS,1002,Y
Civil Engineering (Transportation) Transition in Year 4,1,2,MA,137,Y
Civil Engineering (Transportation) Transition in Year 4,1,2,CH,200,Y
Civil Engineering (Transportation) Transition in Year 4,1,3,AE,1231,Y
Civil Engineering (Transportation) Transition in Year 4,1,3,GS,1003,Y
Civil Engineering (Transportation) Transition in Year 4,1,3,MA,2314,Y
Civil Engineering (Transportation) Transition in Year 4,1,3,CH,201,N
Civil Engineering (Transportation) Transition in Year 4,2,1,AE,200,Y
Civil Engineering (Transportation) Transition in Year 4,2,1,CM,2200,N
Civil Engineering (Transportation) Transition in Year 4,2,1,CM,2121,Y
Civil Engineering (Transportation) Transition in Year 4,2,1,GE,205,N
Civil Engineering (Transportation) Transition in Year 4,2,1,MA,2323,Y
Civil Engineering (Transportation) Transition in Year 4,2,1,PH,2021,N
Civil Engineering (Transportation) Transition in Year 4,2,2,AE,2011,Y
Civil Engineering (Transportation) Transition in Year 4,2,2,AE,2121,N
Civil Engineering (Transportation) Transition in Year 4,2,2,CV,2001,N
Civil Engineering (Transportation) Transition in Year 4,2,2,CV,380,Y
Civil Engineering (Transportation) Transition in Year 4,2,2,MA,262,Y
Civil Engineering (Transportation) Transition in Year 4,2,3,AE,2012,Y
Civil Engineering (Transportation) Transition in Year 4,2,3,AE,2130,Y
Civil Engineering (Transportation) Transition in Year 4,2,3,EL,SS,N
Civil Engineering (Transportation) Transition in Year 4,2,3,MA,235,Y
Civil Engineering (Transportation) Transition in Year 4,2,3,EL,PC,N
Civil Engineering (Transportation) Transition in Year 4,3,1,AE,3201,Y
Civil Engineering (Transportation) Transition in Year 4,3,1,CV,310,Y
Civil Engineering (Transportation) Transition in Year 4,3,1,CM,4311,Y
Civil Engineering (Transportation) Transition in Year 4,3,1,CV,320,N
Civil Engineering (Transportation) Transition in Year 4,3,1,GE,305,N
Civil Engineering (Transportation) Transition in Year 4,3,2,CV,3320,Y
Civil Engineering (Transportation) Transition in Year 4,3,2,CM,3250,Y
Civil Engineering (Transportation) Transition in Year 4,3,2,CV,3500,Y
Civil Engineering (Transportation) Transition in Year 4,3,2,BA,2220,N
Civil Engineering (Transportation) Transition in Year 4,3,3,CM,3210,Y
Civil Engineering (Transportation) Transition in Year 4,3,3,CV,3310,N
Civil Engineering (Transportation) Transition in Year 4,3,3,EL,SS,N
Civil Engineering (Transportation) Transition in Year 4,3,3,EL,MS,N
Civil Engineering (Transportation) Transition in Year 4,3,3,SC,370,N
Civil Engineering (Transportation) Transition in Year 4,4,1,CVE,4901,Y
Civil Engineering (Transportation) Transition in Year 4,4,1,ELC,TRPE,N
Civil Engineering (Transportation) Transition in Year 4,4,1,TCM,3020,Y
Civil Engineering (Transportation) Transition in Year 4,4,1,CAE,3001,N
Civil Engineering (Transportation) Transition in Year 4,4,1,ELC,HU,N
Civil Engineering (Transportation) Transition in Year 4,4,1,ELC,Econ,N
Civil Engineering (Transportation) Transition in Year 4,4,2,CVE,4902,Y
Civil Engineering (Transportation) Transition in Year 4,4,2,ELC,Tech,N
Civil Engineering (Transportation) Transition in Year 4,4,2,CAE,4861,Y
Civil Engineering (Transportation) Transition in Year 4,4,2,ELC,Tech,N
Civil Engineering (Transportation) Transition in Year 4,4,2,ELC,Ethi,Y
