# Curriculum,Year,Term,Prefix,Number,MustHave
https://catalog.msoe.edu/preview_program.php?catoid=29&poid=1518
Architectural Engineering (Mechanical) V7.1,1,1,AE,1001,Y
Architectural Engineering (Mechanical) V7.1,1,1,GS,1001,Y
Architectural Engineering (Mechanical) V7.1,1,1,MA,136,Y
Architectural Engineering (Mechanical) V7.1,1,1,PH,2011,Y
Architectural Engineering (Mechanical) V7.1,1,2,AE,1002,Y
Architectural Engineering (Mechanical) V7.1,1,2,CH,200,Y
Architectural Engineering (Mechanical) V7.1,1,2,GS,1002,Y
Architectural Engineering (Mechanical) V7.1,1,2,MA,137,Y
Architectural Engineering (Mechanical) V7.1,1,3,AE,1231,Y
Architectural Engineering (Mechanical) V7.1,1,3,CH,201,Y
Architectural Engineering (Mechanical) V7.1,1,3,GS,1003,Y
Architectural Engineering (Mechanical) V7.1,1,3,MA,2314,Y
Architectural Engineering (Mechanical) V7.1,2,1,AE,200,Y
Architectural Engineering (Mechanical) V7.1,2,1,AE,2001,Y
Architectural Engineering (Mechanical) V7.1,2,1,CM,2200,Y
Architectural Engineering (Mechanical) V7.1,2,1,GE,205,Y
Architectural Engineering (Mechanical) V7.1,2,1,MA,235,Y
Architectural Engineering (Mechanical) V7.1,2,1,PH,2021,Y
Architectural Engineering (Mechanical) V7.1,2,2,AE,2011,Y
Architectural Engineering (Mechanical) V7.1,2,2,AE,2121,Y
Architectural Engineering (Mechanical) V7.1,2,2,AE,2150,Y
Architectural Engineering (Mechanical) V7.1,2,2,MA,2323,Y
Architectural Engineering (Mechanical) V7.1,2,2,EL,HU,Y
Architectural Engineering (Mechanical) V7.1,2,3,AE,2012,Y
Architectural Engineering (Mechanical) V7.1,2,3,AE,2130,Y
Architectural Engineering (Mechanical) V7.1,2,3,AE,2250,Y
Architectural Engineering (Mechanical) V7.1,2,3,MA,262,Y
Architectural Engineering (Mechanical) V7.1,2,3,PH,2031,Y
Architectural Engineering (Mechanical) V7.1,3,1,AE,3201,Y
Architectural Engineering (Mechanical) V7.1,3,1,AE,3301,Y
Architectural Engineering (Mechanical) V7.1,3,1,AE,3601,Y
Architectural Engineering (Mechanical) V7.1,3,1,CM,4311,Y
Architectural Engineering (Mechanical) V7.1,3,1,GE,305,Y
Architectural Engineering (Mechanical) V7.1,3,2,AE,3421,Y
Architectural Engineering (Mechanical) V7.1,3,2,AE,3521,Y
Architectural Engineering (Mechanical) V7.1,3,2,AE,3531,Y
Architectural Engineering (Mechanical) V7.1,3,2,EL,MS,Y
Architectural Engineering (Mechanical) V7.1,3,3,AE,3422,Y
Architectural Engineering (Mechanical) V7.1,3,3,AE,3451,Y
Architectural Engineering (Mechanical) V7.1,3,3,AE,3321,Y
Architectural Engineering (Mechanical) V7.1,3,3,EL,MS,Y
Architectural Engineering (Mechanical) V7.1,3,3,EL,HU,Y
Architectural Engineering (Mechanical) V7.1,4,1,AE,4311,Y
Architectural Engineering (Mechanical) V7.1,4,1,AE,4412,Y
Architectural Engineering (Mechanical) V7.1,4,1,AE,4712,Y
Architectural Engineering (Mechanical) V7.1,4,1,EN,441,Y
Architectural Engineering (Mechanical) V7.1,4,1,GE,405,Y
Architectural Engineering (Mechanical) V7.1,4,1,EL,Tech,Y
Architectural Engineering (Mechanical) V7.1,4,2,AE,4721,Y
Architectural Engineering (Mechanical) V7.1,4,2,AE,4121,Y
Architectural Engineering (Mechanical) V7.1,4,2,CM,3024,Y
Architectural Engineering (Mechanical) V7.1,4,2,EL,SS,Y
Architectural Engineering (Mechanical) V7.1,4,2,EL,Tech,Y
Architectural Engineering (Mechanical) V7.1,4,3,AE,4731,Y
Architectural Engineering (Mechanical) V7.1,4,3,AE,4733,Y
Architectural Engineering (Mechanical) V7.1,4,3,HU,432,Y
Architectural Engineering (Mechanical) V7.1,4,3,EL,SS,Y
Architectural Engineering (Mechanical) V7.1,4,3,EL,Tech,Y
