# Curriculum,Year,Term,Prefix,Number,MustHave
Nursing Transition in Year 2,1,1,CH,2050,Y
Nursing Transition in Year 2,1,1,BI,1980T,Y
Nursing Transition in Year 2,1,1,GS,1001,Y
Nursing Transition in Year 2,1,2,NU,2000,Y
Nursing Transition in Year 2,1,2,CH,2251,Y
Nursing Transition in Year 2,1,2,SS,460,N
Nursing Transition in Year 2,1,2,BI,1980U,Y
Nursing Transition in Year 2,1,3,CH,2261,Y
Nursing Transition in Year 2,1,3,BI,256,Y
Nursing Transition in Year 2,1,3,BI,1980V,Y
Nursing Transition in Year 2,1,3,GS,1002,Y
Nursing Transition in Year 2,2,1,NUR,2010,Y
Nursing Transition in Year 2,2,1,NUR,2000,Y
Nursing Transition in Year 2,2,1,ELC,HU,N
Nursing Transition in Year 2,2,1,NUR,2001,Y
Nursing Transition in Year 2,2,1,MTH,1030,Y
Nursing Transition in Year 2,2,2,NUR,2020,Y
Nursing Transition in Year 2,2,2,NUR,3000,Y
Nursing Transition in Year 2,2,2,PSY,3003,Y
Nursing Transition in Year 2,2,2,NUR,2002,Y
Nursing Transition in Year 2,3,1,NUR,3010,Y
Nursing Transition in Year 2,3,1,NUR,3011,Y
Nursing Transition in Year 2,3,1,PHL,3103,Y
Nursing Transition in Year 2,3,1,COM,3001,Y
Nursing Transition in Year 2,3,1,ELC,HUSS,N
Nursing Transition in Year 2,3,2,NUR,3020,Y
Nursing Transition in Year 2,3,2,NUR,3021,Y
Nursing Transition in Year 2,3,2,NUR,3030,Y
Nursing Transition in Year 2,3,2,MTH,2430,Y
Nursing Transition in Year 2,3,2,ELC,NUR,Y
Nursing Transition in Year 2,4,1,NUR,4020,Y
Nursing Transition in Year 2,4,1,NUR,4010,Y
Nursing Transition in Year 2,4,1,NUR,4901,Y
Nursing Transition in Year 2,4,1,ELC,NUR,Y
Nursing Transition in Year 2,4,2,NUR,4030,Y
Nursing Transition in Year 2,4,2,NUR,4001,Y
Nursing Transition in Year 2,4,2,NUR,4902,Y
Nursing Transition in Year 2,4,2,BUS,2225,Y
