# Curriculum,Year,Term,Prefix,Number,MustHave
Nursing Transfer Transition in Year 4,1,1,CH,2050,Y
Nursing Transfer Transition in Year 4,1,1,SS,460,N
Nursing Transfer Transition in Year 4,1,1,BI,1010,Y
Nursing Transfer Transition in Year 4,1,1,GS,1003,Y
Nursing Transfer Transition in Year 4,1,2,NU,2000,Y
Nursing Transfer Transition in Year 4,1,2,CH,2251,Y
Nursing Transfer Transition in Year 4,1,2,BI,1020,Y
Nursing Transfer Transition in Year 4,1,2,GS,1001,Y
Nursing Transfer Transition in Year 4,1,3,CH,2261,Y
Nursing Transfer Transition in Year 4,1,3,BI,256,Y
Nursing Transfer Transition in Year 4,1,3,BI,1030,Y
Nursing Transfer Transition in Year 4,1,3,GS,1002,Y
Nursing Transfer Transition in Year 4,2,1,NU,220,N
Nursing Transfer Transition in Year 4,2,1,NU,260,Y
Nursing Transfer Transition in Year 4,2,1,SS,462,Y
Nursing Transfer Transition in Year 4,2,1,BI,2040,Y
Nursing Transfer Transition in Year 4,2,1,MA,1204,Y
Nursing Transfer Transition in Year 4,2,3,NU,2011,Y
Nursing Transfer Transition in Year 4,2,3,NU,2320,Y
Nursing Transfer Transition in Year 4,2,3,NU,2810,Y
Nursing Transfer Transition in Year 4,2,3,NU,290,Y
Nursing Transfer Transition in Year 4,3,1,NU,2520,Y
Nursing Transfer Transition in Year 4,3,1,NU,2820,Y
Nursing Transfer Transition in Year 4,3,1,NU,391,Y
Nursing Transfer Transition in Year 4,3,1,MA,315,Y
Nursing Transfer Transition in Year 4,3,2,NU,3000,Y
Nursing Transfer Transition in Year 4,3,2,NU,3000L,Y
Nursing Transfer Transition in Year 4,3,2,NU,300,Y
Nursing Transfer Transition in Year 4,3,2,EL,HU,N
Nursing Transfer Transition in Year 4,3,2,HU,332,Y
Nursing Transfer Transition in Year 4,3,3,NU,3200,Y
Nursing Transfer Transition in Year 4,3,3,NU,3200L,Y
Nursing Transfer Transition in Year 4,3,3,EL,NUR,Y
Nursing Transfer Transition in Year 4,3,3,EL,SS,N
Nursing Transfer Transition in Year 4,3,3,EL,HU,N
Nursing Transfer Transition in Year 4,4,1,NUR,3020,Y
Nursing Transfer Transition in Year 4,4,1,NUR,3030,Y
Nursing Transfer Transition in Year 4,4,1,ELC,NUR,Y
Nursing Transfer Transition in Year 4,4,2,NUR,4020,Y
Nursing Transfer Transition in Year 4,4,2,NUR,4010,Y
Nursing Transfer Transition in Year 4,4,2,NUR,4901,Y
Nursing Transfer Transition in Year 4,4,2,BUS,2225,Y
Nursing Transfer Transition in Year 4,5,1,NUR,4030,Y
Nursing Transfer Transition in Year 4,5,1,NUR,4001,Y
Nursing Transfer Transition in Year 4,5,1,NUR,4902,Y
