# Curriculum,Year,Term,Prefix,Number,MustHave
https://catalog.msoe.edu/preview_program.php?catoid=29&poid=1521
Construction Management V7.2,1,1,AE,1001,Y
Construction Management V7.2,1,1,GS,1001,Y
Construction Management V7.2,1,1,MA,120,Y
Construction Management V7.2,1,1,CH,200,Y
Construction Management V7.2,1,2,AE,1002,Y
Construction Management V7.2,1,2,GS,1002,Y
Construction Management V7.2,1,2,MA,136,Y
Construction Management V7.2,1,2,PH,2011,Y
Construction Management V7.2,1,3,AE,1231,Y
Construction Management V7.2,1,3,GS,1003,Y
Construction Management V7.2,1,3,MA,137,Y
Construction Management V7.2,1,3,PH,2021,Y
Construction Management V7.2,2,1,AE,200,Y
Construction Management V7.2,2,1,CM,2200,Y
Construction Management V7.2,2,1,CM,2121,Y
Construction Management V7.2,2,1,AE,2001,Y
Construction Management V7.2,2,1,GE,205,Y
Construction Management V7.2,2,1,BA,1015,Y
Construction Management V7.2,2,2,AE,2011,Y
Construction Management V7.2,2,2,CM,250,Y
Construction Management V7.2,2,2,AE,2150,Y
Construction Management V7.2,2,2,BA,2501,Y
Construction Management V7.2,2,2,MA,262,Y
Construction Management V7.2,2,3,AE,2012,Y
Construction Management V7.2,2,3,CM,2300,Y
Construction Management V7.2,2,3,AE,2250,Y
Construction Management V7.2,2,3,BA,2220,Y
Construction Management V7.2,2,3,BA,2503,Y
Construction Management V7.2,3,1,AE,3201,Y
Construction Management V7.2,3,1,CM,3112,Y
Construction Management V7.2,3,1,CM,4311,Y
Construction Management V7.2,3,1,GE,305,Y
Construction Management V7.2,3,1,BA,2331,Y
Construction Management V7.2,3,2,CM,3024,Y
Construction Management V7.2,3,2,CM,3250,Y
Construction Management V7.2,3,2,EL,SS,Y
Construction Management V7.2,3,2,EL,HU,Y
Construction Management V7.2,3,2,BA,2442,Y
Construction Management V7.2,3,3,CM,3210,Y
Construction Management V7.2,3,3,CM,3013,Y
Construction Management V7.2,3,3,CM,3612,Y
Construction Management V7.2,3,3,AE,3321,Y
Construction Management V7.2,3,3,SS,461,Y
Construction Management V7.2,4,1,AE,4311,Y
Construction Management V7.2,4,1,AE,4412,Y
Construction Management V7.2,4,1,CM,4712,Y
Construction Management V7.2,4,1,CM,4512,Y
Construction Management V7.2,4,1,EN,441,Y
Construction Management V7.2,4,1,EL,Tech,Y
Construction Management V7.2,4,2,AE,4121,Y
Construction Management V7.2,4,2,AE,4321,Y
Construction Management V7.2,4,2,CM,4721,Y
Construction Management V7.2,4,2,EL,HU,Y
Construction Management V7.2,4,2,EL,Tech,Y
Construction Management V7.2,4,3,CM,4731,Y
Construction Management V7.2,4,3,HU,432,Y
Construction Management V7.2,4,3,CM,3417,Y
Construction Management V7.2,4,3,EL,HUSS,Y
Construction Management V7.2,4,3,EL,Tech,Y
