# Curriculum,Year,Term,Prefix,Number,MustHave
https://catalog.msoe.edu/preview_program.php?catoid=40&poid=2049
Construction Management Version S1,1,1,CAE,1001,Y
Construction Management Version S1,1,1,CAE,1811,Y
Construction Management Version S1,1,1,CAE,1851,Y
Construction Management Version S1,1,1,CHM,1010,Y
Construction Management Version S1,1,1,COM,1001,Y
Construction Management Version S1,1,1,MTH,1080,Y
Construction Management Version S1,1,2,ELC,Divs,Y
Construction Management Version S1,1,2,CAE,1871,Y
Construction Management Version S1,1,2,CAE,1872,Y
Construction Management Version S1,1,2,MTH,1110,Y
Construction Management Version S1,1,2,ELC,Intr,Y
Construction Management Version S1,2,1,ELC,Ethi,Y
Construction Management Version S1,2,1,ELC,Grph,Y
Construction Management Version S1,2,1,CAE,2001,Y
Construction Management Version S1,2,1,CAE,2511,Y
Construction Management Version S1,2,1,PHY,1110,Y
Construction Management Version S1,2,1,BUS,3200,Y
Construction Management Version S1,2,2,BUS,2510,Y
Construction Management Version S1,2,2,CAE,2512,Y
Construction Management Version S1,2,2,COM,2001,Y
Construction Management Version S1,2,2,CON,2001,Y
Construction Management Version S1,2,2,CON,2071,Y
Construction Management Version S1,2,2,MTH,2450,Y
Construction Management Version S1,3,1,CAE,3001,Y
Construction Management Version S1,3,1,CAE,3501,Y
Construction Management Version S1,3,1,COM,3001,Y
Construction Management Version S1,3,1,CON,3001,Y
Construction Management Version S1,3,1,CON,3011,Y
Construction Management Version S1,3,1,CON,3021,Y
Construction Management Version S1,3,2,ARE,3821,Y
Construction Management Version S1,3,2,CAE,4861,Y
Construction Management Version S1,3,2,CAE,4881,Y
Construction Management Version S1,3,2,CON,3061,Y
Construction Management Version S1,3,2,CON,3071,Y
Construction Management Version S1,4,1,ELC,Tech,Y
Construction Management Version S1,4,1,ELC,RCd,Y
Construction Management Version S1,4,1,CON,4021,Y
Construction Management Version S1,4,1,CON,4051,Y
Construction Management Version S1,4,1,CON,4901,Y
Construction Management Version S1,4,2,ELC,Tech,Y
Construction Management Version S1,4,2,ELC,Tech,Y
Construction Management Version S1,4,2,ELC,BUS,Y
Construction Management Version S1,4,2,ELC,Free,Y
Construction Management Version S1,4,2,CON,4902,Y
