# Curriculum,Year,Term,Prefix,Number,MustHave
Construction Management Transition in Year 3,1,1,AE,1001,N
Construction Management Transition in Year 3,1,1,GS,1001,Y
Construction Management Transition in Year 3,1,1,MA,120,Y
Construction Management Transition in Year 3,1,1,CH,200,Y
Construction Management Transition in Year 3,1,2,AE,1002,N
Construction Management Transition in Year 3,1,2,GS,1002,Y
Construction Management Transition in Year 3,1,2,MA,136,Y
Construction Management Transition in Year 3,1,2,PH,2011,Y
Construction Management Transition in Year 3,1,3,AE,1231,Y
Construction Management Transition in Year 3,1,3,GS,1003,Y
Construction Management Transition in Year 3,1,3,MA,137,Y
Construction Management Transition in Year 3,1,3,PH,2021,N
Construction Management Transition in Year 3,2,1,AE,200,Y
Construction Management Transition in Year 3,2,1,CM,2200,N
Construction Management Transition in Year 3,2,1,CM,2121,Y
Construction Management Transition in Year 3,2,1,AE,2001,N
Construction Management Transition in Year 3,2,1,GE,205,N
Construction Management Transition in Year 3,2,1,BA,1015,N
Construction Management Transition in Year 3,2,2,AE,2011,Y
Construction Management Transition in Year 3,2,2,CM,250,Y
Construction Management Transition in Year 3,2,2,AE,2150,Y
Construction Management Transition in Year 3,2,2,BA,2501,N
Construction Management Transition in Year 3,2,2,MA,262,Y
Construction Management Transition in Year 3,2,3,AE,2012,Y
Construction Management Transition in Year 3,2,3,CM,2300,N
Construction Management Transition in Year 3,2,3,AE,2250,N
Construction Management Transition in Year 3,2,3,BA,2220,N
Construction Management Transition in Year 3,2,3,BA,2503,N
Construction Management Transition in Year 3,3,1,CAE,3501,Y
Construction Management Transition in Year 3,3,1,CON,3001,Y
Construction Management Transition in Year 3,3,1,CON,3021,Y
Construction Management Transition in Year 3,3,1,CON,3011,Y
Construction Management Transition in Year 3,3,1,CON,4021,Y
Construction Management Transition in Year 3,3,2,ARE,3821,Y
Construction Management Transition in Year 3,3,2,CAE,4861,Y
Construction Management Transition in Year 3,3,2,CON,3061,Y
Construction Management Transition in Year 3,3,2,CAE,2001,N
Construction Management Transition in Year 3,3,2,ELC,SS,N
Construction Management Transition in Year 3,3,2,ELC,BUS,N
Construction Management Transition in Year 3,4,1,CON,4901,N
Construction Management Transition in Year 3,4,1,CON,4051,Y
Construction Management Transition in Year 3,4,1,CON,2071,Y
Construction Management Transition in Year 3,4,1,ELC,Tech,N
Construction Management Transition in Year 3,4,1,CAE,3001,N
Construction Management Transition in Year 3,4,1,ELC,SS,N
Construction Management Transition in Year 3,4,2,CON,4902,N
Construction Management Transition in Year 3,4,2,CON,3071,Y
Construction Management Transition in Year 3,4,2,CAE,4881,N
Construction Management Transition in Year 3,4,2,ELC,Tech,N
Construction Management Transition in Year 3,4,2,ELC,Ethi,Y
