# Curriculum,Year,Term,Prefix,Number,MustHave
Architectural Engineering (Electrical) Transition in Year 4,1,1,AE,1001,N
Architectural Engineering (Electrical) Transition in Year 4,1,1,GS,1001,Y
Architectural Engineering (Electrical) Transition in Year 4,1,1,MA,136,Y
Architectural Engineering (Electrical) Transition in Year 4,1,1,PH,2011,Y
Architectural Engineering (Electrical) Transition in Year 4,1,2,AE,1002,N
Architectural Engineering (Electrical) Transition in Year 4,1,2,CH,200,Y
Architectural Engineering (Electrical) Transition in Year 4,1,2,GS,1002,Y
Architectural Engineering (Electrical) Transition in Year 4,1,2,MA,137,Y
Architectural Engineering (Electrical) Transition in Year 4,1,3,AE,1231,Y
Architectural Engineering (Electrical) Transition in Year 4,1,3,CH,201,N
Architectural Engineering (Electrical) Transition in Year 4,1,3,GS,1003,Y
Architectural Engineering (Electrical) Transition in Year 4,1,3,MA,2314,Y
Architectural Engineering (Electrical) Transition in Year 4,2,1,AE,200,Y
Architectural Engineering (Electrical) Transition in Year 4,2,1,AE,2001,N
Architectural Engineering (Electrical) Transition in Year 4,2,1,CM,2200,N
Architectural Engineering (Electrical) Transition in Year 4,2,1,GE,205,N
Architectural Engineering (Electrical) Transition in Year 4,2,1,MA,235,Y
Architectural Engineering (Electrical) Transition in Year 4,2,1,PH,2021,Y
Architectural Engineering (Electrical) Transition in Year 4,2,2,AE,2011,Y
Architectural Engineering (Electrical) Transition in Year 4,2,2,AE,2121,Y
Architectural Engineering (Electrical) Transition in Year 4,2,2,AE,2150,Y
Architectural Engineering (Electrical) Transition in Year 4,2,2,MA,2323,Y
Architectural Engineering (Electrical) Transition in Year 4,2,2,EL,HU,N
Architectural Engineering (Electrical) Transition in Year 4,2,3,AE,2012,Y
Architectural Engineering (Electrical) Transition in Year 4,2,3,AE,2130,Y
Architectural Engineering (Electrical) Transition in Year 4,2,3,AE,2250,N
Architectural Engineering (Electrical) Transition in Year 4,2,3,MA,262,Y
Architectural Engineering (Electrical) Transition in Year 4,2,3,PH,2031,Y
Architectural Engineering (Electrical) Transition in Year 4,3,1,AE,3201,Y
Architectural Engineering (Electrical) Transition in Year 4,3,1,AE,3301,Y
Architectural Engineering (Electrical) Transition in Year 4,3,1,AE,3601,Y
Architectural Engineering (Electrical) Transition in Year 4,3,1,CM,4311,Y
Architectural Engineering (Electrical) Transition in Year 4,3,1,GE,305,N
Architectural Engineering (Electrical) Transition in Year 4,3,2,AE,3622,Y
Architectural Engineering (Electrical) Transition in Year 4,3,2,AE,3632,Y
Architectural Engineering (Electrical) Transition in Year 4,3,2,AE,3636,Y
Architectural Engineering (Electrical) Transition in Year 4,3,2,EL,MS,N
Architectural Engineering (Electrical) Transition in Year 4,3,3,AE,3661,N
Architectural Engineering (Electrical) Transition in Year 4,3,3,AE,3451,N
Architectural Engineering (Electrical) Transition in Year 4,3,3,AE,3321,Y
Architectural Engineering (Electrical) Transition in Year 4,3,3,HU,432,Y
Architectural Engineering (Electrical) Transition in Year 4,3,3,EL,MS,N
Architectural Engineering (Electrical) Transition in Year 4,4,1,ARE,4901,Y
Architectural Engineering (Electrical) Transition in Year 4,4,1,ELC,SpcE,N
Architectural Engineering (Electrical) Transition in Year 4,4,1,ELC,Tech,N
Architectural Engineering (Electrical) Transition in Year 4,4,1,CAE,3001,N
Architectural Engineering (Electrical) Transition in Year 4,4,1,ELC,SS,N
Architectural Engineering (Electrical) Transition in Year 4,4,1,ELC,Econ,N
Architectural Engineering (Electrical) Transition in Year 4,4,2,ARE,4902,Y
Architectural Engineering (Electrical) Transition in Year 4,4,2,ELC,Tech,N
Architectural Engineering (Electrical) Transition in Year 4,4,2,ELC,Tech,N
Architectural Engineering (Electrical) Transition in Year 4,4,2,CAE,4861,Y
Architectural Engineering (Electrical) Transition in Year 4,4,2,ELC,SS,N
