# ELC-Sci
BIO-1110,Cell Biology and Genetics
BIO-1410,Human Anatomy & Physiology I
BIO-1420,Human Anatomy & Physiology II
BIO-2310,Clinical Microbiology and Genomics (CLO)
BIO-2520,Human Physiology II
CHM-1010,Chemistry I (CLO)
CHM-1020,Chemistry II (CLO)
CHM-1310,Chemistry of Food Molecules (CLO)
CHM-2310,Biochemistry
CHM-3510,Advanced Analytical Chemistry
PHY-1120,Physics II Electricity, Magnetism, and Optics (CLO)
PHY-3700,Physics of Electronic Materials and Semiconductor Devices
SCI-1610,Environmental Science (CLO)
semesters/ux/EL-Sci.csv
