# Curriculum,Year,Term,Prefix,Number,MustHave
User Experience Transition in Year 2,1,1,GS,1001,Y
User Experience Transition in Year 2,1,1,MA,120,Y
User Experience Transition in Year 2,1,1,TC,1400,Y
User Experience Transition in Year 2,1,1,UX,1400,Y
User Experience Transition in Year 2,1,2,GS,1002,Y
User Experience Transition in Year 2,1,2,MA,129,Y
User Experience Transition in Year 2,1,2,SS,460,Y
User Experience Transition in Year 2,1,2,UX,1511,Y
User Experience Transition in Year 2,1,3,GS,1003,Y
User Experience Transition in Year 2,1,3,MA,340,Y
User Experience Transition in Year 2,1,3,SS,473,Y
User Experience Transition in Year 2,1,3,UX,1521,Y
User Experience Transition in Year 2,2,1,UXD,2010,Y
User Experience Transition in Year 2,2,1,TCM,2010,Y
User Experience Transition in Year 2,2,1,TCM,3020,Y
User Experience Transition in Year 2,2,1,CSC,1110,Y
User Experience Transition in Year 2,2,1,ELC,HU,N
User Experience Transition in Year 2,2,2,UXD,1030,Y
User Experience Transition in Year 2,2,2,UXD,1040,Y
User Experience Transition in Year 2,2,2,TCM,1020,Y
User Experience Transition in Year 2,2,2,TCM,2020,Y
User Experience Transition in Year 2,2,2,PSY,2002,Y
User Experience Transition in Year 2,3,1,UXD,2020,Y
User Experience Transition in Year 2,3,1,UXD,3010,Y
User Experience Transition in Year 2,3,1,UXD,3020,Y
User Experience Transition in Year 2,3,1,TCM,3010,Y
User Experience Transition in Year 2,3,1,MEC,1602,Y
User Experience Transition in Year 2,3,2,UXD,2030,Y
User Experience Transition in Year 2,3,2,UXD,3030,Y
User Experience Transition in Year 2,3,2,UXD,3040,Y
User Experience Transition in Year 2,3,2,UXD,3050,Y
User Experience Transition in Year 2,3,2,UXD,3060,Y
User Experience Transition in Year 2,4,1,ELC,Prog,N
User Experience Transition in Year 2,4,1,UXD,4901,Y
User Experience Transition in Year 2,4,1,PHL,3102,Y
User Experience Transition in Year 2,4,1,ELC,HUSS,N
User Experience Transition in Year 2,4,1,ELC,Sci,N
User Experience Transition in Year 2,4,2,UXD,2050,Y
User Experience Transition in Year 2,4,2,UXD,4030,N
User Experience Transition in Year 2,4,2,ELC,Prog,N
User Experience Transition in Year 2,4,2,ELC,Prog,N
User Experience Transition in Year 2,4,2,ELC,Free,N
