# Curriculum,Year,Term,Prefix,Number,MustHave
https://catalog.msoe.edu/preview_program.php?catoid=31&poid=1692
User Experience Version S1,1,1,COM,1001,Y
User Experience Version S1,1,1,MTH,1050,Y
User Experience Version S1,1,1,TCM,1010,Y
User Experience Version S1,1,1,UXD,1001,Y
User Experience Version S1,1,1,UXD,1020,Y
User Experience Version S1,1,2,MTH,2450,Y
User Experience Version S1,1,2,PSY,2002,Y
User Experience Version S1,1,2,TCM,1020,Y
User Experience Version S1,1,2,UXD,1030,Y
User Experience Version S1,1,2,UXD,1040,Y
User Experience Version S1,2,1,COM,2001,Y
User Experience Version S1,2,1,CSC,1110,Y
User Experience Version S1,2,1,TCM,2010,Y
User Experience Version S1,2,1,UXD,2010,Y
User Experience Version S1,2,1,UXD,2020,Y
User Experience Version S1,2,2,COM,3001,Y
User Experience Version S1,2,2,TCM,2020,Y
User Experience Version S1,2,2,UXD,2030,Y
User Experience Version S1,2,2,UXD,2040,Y
User Experience Version S1,2,2,UXD,2050,Y
User Experience Version S1,3,1,MEC,1602,Y
User Experience Version S1,3,1,TCM,3010,Y
User Experience Version S1,3,1,UXD,3010,Y
User Experience Version S1,3,1,UXD,3020,Y
User Experience Version S1,3,1,ELC,Curi,Y
User Experience Version S1,3,2,TCM,3020,Y
User Experience Version S1,3,2,UXD,3030,Y
User Experience Version S1,3,2,UXD,3040,Y
User Experience Version S1,3,2,UXD,3050,Y
User Experience Version S1,3,2,UXD,3060,Y
User Experience Version S1,4,1,PHL,3102,Y
User Experience Version S1,4,1,UXD,4020,Y
User Experience Version S1,4,1,UXD,4901,Y
User Experience Version S1,4,1,ELC,Divs,Y
User Experience Version S1,4,1,ELC,Prog,Y
User Experience Version S1,4,2,SOC,4001,Y
User Experience Version S1,4,2,UXD,4030,Y
User Experience Version S1,4,2,ELC,Prog,Y
User Experience Version S1,4,2,ELC,Prog,Y
User Experience Version S1,4,2,ELC,RCd,Y
