# Curriculum,Year,Term,Prefix,Number,MustHave
Operations and Systems Management Transition in Year 3,1,1,BA,1000,N
Operations and Systems Management Transition in Year 3,1,1,BA,1801,Y
Operations and Systems Management Transition in Year 3,1,1,GS,1003,Y
Operations and Systems Management Transition in Year 3,1,1,MA,120,Y
Operations and Systems Management Transition in Year 3,1,2,BA,1227,N
Operations and Systems Management Transition in Year 3,1,2,EL,Econ,N
Operations and Systems Management Transition in Year 3,1,2,GS,1001,Y
Operations and Systems Management Transition in Year 3,1,2,MA,129,N
Operations and Systems Management Transition in Year 3,1,3,BA,2442,N
Operations and Systems Management Transition in Year 3,1,3,EL,LabS,N
Operations and Systems Management Transition in Year 3,1,3,GS,1002,Y
Operations and Systems Management Transition in Year 3,1,3,MA,340,Y
Operations and Systems Management Transition in Year 3,2,1,BA,1015,Y
Operations and Systems Management Transition in Year 3,2,1,BA,2401,Y
Operations and Systems Management Transition in Year 3,2,1,BA,2510,Y
Operations and Systems Management Transition in Year 3,2,1,BA,2661,Y
Operations and Systems Management Transition in Year 3,2,1,EL,HU,N
Operations and Systems Management Transition in Year 3,2,2,BA,2015,N
Operations and Systems Management Transition in Year 3,2,2,BA,2331,Y
Operations and Systems Management Transition in Year 3,2,2,BA,2530,Y
Operations and Systems Management Transition in Year 3,2,2,BA,3440,N
Operations and Systems Management Transition in Year 3,2,2,EL,SS,N
Operations and Systems Management Transition in Year 3,2,3,BA,2440,N
Operations and Systems Management Transition in Year 3,2,3,BA,3444,Y
Operations and Systems Management Transition in Year 3,2,3,BA,3801,N
Operations and Systems Management Transition in Year 3,2,3,EL,BUS,N
Operations and Systems Management Transition in Year 3,2,3,EL,BUS,N
Operations and Systems Management Transition in Year 3,3,1,BUS,3560,Y
Operations and Systems Management Transition in Year 3,3,1,BUS,3890,Y
Operations and Systems Management Transition in Year 3,3,1,BUS,2730,Y
Operations and Systems Management Transition in Year 3,3,1,BUS,2710,Y
Operations and Systems Management Transition in Year 3,3,1,BUS,3445,Y
Operations and Systems Management Transition in Year 3,3,1,ELC,BUS,N
Operations and Systems Management Transition in Year 3,3,2,BUS,3420,Y
Operations and Systems Management Transition in Year 3,3,2,ELC,SS,N
Operations and Systems Management Transition in Year 3,3,2,BUS,2900,Y
Operations and Systems Management Transition in Year 3,3,2,ELC,BUS,N
Operations and Systems Management Transition in Year 3,3,2,ELC,HU,N
Operations and Systems Management Transition in Year 3,4,1,BUS,3820,Y
Operations and Systems Management Transition in Year 3,4,1,BUS,4900,Y
Operations and Systems Management Transition in Year 3,4,1,ELC,Ethi,Y
Operations and Systems Management Transition in Year 3,4,1,ELC,BUS,Y
Operations and Systems Management Transition in Year 3,4,1,BUS,4801,Y
Operations and Systems Management Transition in Year 3,4,2,BUS,3805,Y
Operations and Systems Management Transition in Year 3,4,2,ELC,BUS,N
Operations and Systems Management Transition in Year 3,4,2,BUS,4901,Y
Operations and Systems Management Transition in Year 3,4,2,ELC,BUS,Y
Operations and Systems Management Transition in Year 3,4,2,BUS,4820,Y
