# Curriculum,Year,Term,Prefix,Number,MustHave
https://csse.msoe.us/mlms/eeml/
Electrical Engineering Early Entry to ML MS Transition in Year 4,1,1,CH,200,Y
Electrical Engineering Early Entry to ML MS Transition in Year 4,1,1,EE,1000,Y
Electrical Engineering Early Entry to ML MS Transition in Year 4,1,1,MA,136,Y
Electrical Engineering Early Entry to ML MS Transition in Year 4,1,1,GS,1001,Y
Electrical Engineering Early Entry to ML MS Transition in Year 4,1,2,CE,1901,Y
Electrical Engineering Early Entry to ML MS Transition in Year 4,1,2,EE,1910,Y
Electrical Engineering Early Entry to ML MS Transition in Year 4,1,2,MA,137,Y
Electrical Engineering Early Entry to ML MS Transition in Year 4,1,2,GS,1002,Y
Electrical Engineering Early Entry to ML MS Transition in Year 4,1,3,CE,1911,Y
Electrical Engineering Early Entry to ML MS Transition in Year 4,1,3,EE,2050,Y
Electrical Engineering Early Entry to ML MS Transition in Year 4,1,3,MA,2314,Y
Electrical Engineering Early Entry to ML MS Transition in Year 4,1,3,GS,1003,Y
Electrical Engineering Early Entry to ML MS Transition in Year 4,2,1,EE,2060,Y
Electrical Engineering Early Entry to ML MS Transition in Year 4,2,1,EE,2920,Y
Electrical Engineering Early Entry to ML MS Transition in Year 4,2,1,MA,235,Y
Electrical Engineering Early Entry to ML MS Transition in Year 4,2,1,PH,2011,Y
Electrical Engineering Early Entry to ML MS Transition in Year 4,2,2,EE,2070,Y
Electrical Engineering Early Entry to ML MS Transition in Year 4,2,2,EE,2931,Y
Electrical Engineering Early Entry to ML MS Transition in Year 4,2,2,MA,2323,Y
Electrical Engineering Early Entry to ML MS Transition in Year 4,2,2,MA,262,Y
Electrical Engineering Early Entry to ML MS Transition in Year 4,2,2,PH,2021,Y
Electrical Engineering Early Entry to ML MS Transition in Year 4,2,3,EE,2510,N
Electrical Engineering Early Entry to ML MS Transition in Year 4,2,3,MA,383,Y
Electrical Engineering Early Entry to ML MS Transition in Year 4,2,3,PH,2031,Y
Electrical Engineering Early Entry to ML MS Transition in Year 4,2,3,BA,2220,N
Electrical Engineering Early Entry to ML MS Transition in Year 4,2,3,EL,HU,N
Electrical Engineering Early Entry to ML MS Transition in Year 4,3,1,EE,3050,Y
Electrical Engineering Early Entry to ML MS Transition in Year 4,3,1,EE,3102,Y
Electrical Engineering Early Entry to ML MS Transition in Year 4,3,1,EE,3921,Y
Electrical Engineering Early Entry to ML MS Transition in Year 4,3,1,ME,354,N
Electrical Engineering Early Entry to ML MS Transition in Year 4,3,2,EE,3032,Y
Electrical Engineering Early Entry to ML MS Transition in Year 4,3,2,EE,3112,Y
Electrical Engineering Early Entry to ML MS Transition in Year 4,3,2,EE,3204,Y
Electrical Engineering Early Entry to ML MS Transition in Year 4,3,2,EE,3720,Y
Electrical Engineering Early Entry to ML MS Transition in Year 4,3,2,GE,300,Y
Electrical Engineering Early Entry to ML MS Transition in Year 4,3,3,EE,3214,Y
Electrical Engineering Early Entry to ML MS Transition in Year 4,3,3,EE,3401,Y
Electrical Engineering Early Entry to ML MS Transition in Year 4,3,3,EE,3221,Y
Electrical Engineering Early Entry to ML MS Transition in Year 4,3,3,MA,383,Y
Electrical Engineering Early Entry to ML MS Transition in Year 4,3,3,CSC,5120,Y
Electrical Engineering Early Entry to ML MS Transition in Year 4,4,1,ELE,4901,Y
Electrical Engineering Early Entry to ML MS Transition in Year 4,4,1,ELC,5610,Y
Electrical Engineering Early Entry to ML MS Transition in Year 4,4,1,ELC,SS,N
Electrical Engineering Early Entry to ML MS Transition in Year 4,4,1,ELC,SS,N
Electrical Engineering Early Entry to ML MS Transition in Year 4,4,1,ELE,3310,Y
Electrical Engineering Early Entry to ML MS Transition in Year 4,4,2,ELE,4902,Y
Electrical Engineering Early Entry to ML MS Transition in Year 4,4,2,ELC,HU,N
Electrical Engineering Early Entry to ML MS Transition in Year 4,4,2,PHY,3700,Y
Electrical Engineering Early Entry to ML MS Transition in Year 4,4,2,ELC,5201,Y
Electrical Engineering Early Entry to ML MS Transition in Year 4,4,2,ELC,Ethi,Y
Electrical Engineering Early Entry to ML MS Transition in Year 4,4,3,CSC,6621,Y
Electrical Engineering Early Entry to ML MS Transition in Year 4,4,3,ELC,MSML,Y
Electrical Engineering Early Entry to ML MS Transition in Year 4,5,1,ELC,MSML,Y
Electrical Engineering Early Entry to ML MS Transition in Year 4,5,1,CSC,6605,Y
Electrical Engineering Early Entry to ML MS Transition in Year 4,5,1,ELC,MSML,Y
