# Curriculum,Year,Term,Prefix,Number,MustHave,Alternative
BioMolecular Engineering Transition in Year 2,1,1,CH,200,Y
BioMolecular Engineering Transition in Year 2,1,1,EB,1001,Y
BioMolecular Engineering Transition in Year 2,1,1,GS,1001,Y
BioMolecular Engineering Transition in Year 2,1,1,MA,136,Y
BioMolecular Engineering Transition in Year 2,1,2,BI,102,Y
BioMolecular Engineering Transition in Year 2,1,2,GS,1002,Y
BioMolecular Engineering Transition in Year 2,1,2,MA,137,Y
BioMolecular Engineering Transition in Year 2,1,2,PH,2011,Y
BioMolecular Engineering Transition in Year 2,1,3,CH,222,Y
BioMolecular Engineering Transition in Year 2,1,3,CH,201,N
BioMolecular Engineering Transition in Year 2,1,3,MA,2314,Y
BioMolecular Engineering Transition in Year 2,1,3,PH,2021,Y
BioMolecular Engineering Transition in Year 2,2,1,CHM,2310,Y
BioMolecular Engineering Transition in Year 2,2,1,MTH,2140,Y
BioMolecular Engineering Transition in Year 2,2,1,PHY,1980T,Y
BioMolecular Engineering Transition in Year 2,2,1,BIE,2010,Y
BioMolecular Engineering Transition in Year 2,2,1,ELC,SS,N
BioMolecular Engineering Transition in Year 2,2,1,ELC,HU,N
BioMolecular Engineering Transition in Year 2,2,2,BIO,2320,Y
BioMolecular Engineering Transition in Year 2,2,2,MTH,2480,Y
BioMolecular Engineering Transition in Year 2,2,2,BIE,2410,Y
BioMolecular Engineering Transition in Year 2,2,2,BIE,2510,Y
BioMolecular Engineering Transition in Year 2,2,2,COM,3001,Y
BioMolecular Engineering Transition in Year 2,3,1,CBE,2100,Y
BioMolecular Engineering Transition in Year 2,3,1,CBE,2300,Y
BioMolecular Engineering Transition in Year 2,3,1,CBE,3420,Y
BioMolecular Engineering Transition in Year 2,3,1,CBE,3520,Y
BioMolecular Engineering Transition in Year 2,3,1,ELC,Sci,Y
BioMolecular Engineering Transition in Year 2,3,2,CBE,3100,Y
BioMolecular Engineering Transition in Year 2,3,2,CBE,3300,Y
BioMolecular Engineering Transition in Year 2,3,2,CBE,3400,Y
BioMolecular Engineering Transition in Year 2,3,2,CBE,3500,Y
BioMolecular Engineering Transition in Year 2,3,2,ELC,Prog,N
BioMolecular Engineering Transition in Year 2,4,1,CBE,4100,Y
BioMolecular Engineering Transition in Year 2,4,1,CBE,3200,Y
BioMolecular Engineering Transition in Year 2,4,1,CBE,4901,Y
BioMolecular Engineering Transition in Year 2,4,1,CBE,4500,Y
BioMolecular Engineering Transition in Year 2,4,1,CBE,4020,Y
BioMolecular Engineering Transition in Year 2,4,1,ELC,Prog,Y
BioMolecular Engineering Transition in Year 2,4,2,CBE,4200,Y
BioMolecular Engineering Transition in Year 2,4,2,CBE,4902,Y
BioMolecular Engineering Transition in Year 2,4,2,CBE,4600,Y
BioMolecular Engineering Transition in Year 2,4,2,ELC,Ethi,Y
BioMolecular Engineering Transition in Year 2,4,2,ELC,SS,Y
