# Curriculum,Year,Term,Prefix,Number,MustHave
https://catalog.msoe.edu/preview_program.php?catoid=40&poid=2078
BioMolecular Engineering Version S1,1,1,CBE,1000,Y
BioMolecular Engineering Version S1,1,1,BIO,1110,Y
BioMolecular Engineering Version S1,1,1,CHM,1010,Y
BioMolecular Engineering Version S1,1,1,MTH,1110,Y
BioMolecular Engineering Version S1,1,2,CHM,1020,Y
BioMolecular Engineering Version S1,1,2,MTH,1120,Y
BioMolecular Engineering Version S1,1,2,PHY,1110,Y
BioMolecular Engineering Version S1,1,2,COM,1001,Y
BioMolecular Engineering Version S1,1,2,ELC,Divs,Y
BioMolecular Engineering Version S1,2,1,CHM,2210,Y
BioMolecular Engineering Version S1,2,1,CHM,2310,Y
BioMolecular Engineering Version S1,2,1,MTH,2140,Y
BioMolecular Engineering Version S1,2,1,PHY,1120,Y
BioMolecular Engineering Version S1,2,1,CBE,2010,Y
BioMolecular Engineering Version S1,2,2,BIO,2320,Y
BioMolecular Engineering Version S1,2,2,COM,2001,Y
BioMolecular Engineering Version S1,2,2,CBE,2410,Y
BioMolecular Engineering Version S1,2,2,CBE,2510,Y
BioMolecular Engineering Version S1,2,2,MTH,2480,Y
BioMolecular Engineering Version S1,3,1,CBE,2100,Y
BioMolecular Engineering Version S1,3,1,CBE,2300,Y
BioMolecular Engineering Version S1,3,1,CBE,3420,Y
BioMolecular Engineering Version S1,3,1,CBE,3520,Y
BioMolecular Engineering Version S1,3,1,ELC,Sci,Y
BioMolecular Engineering Version S1,3,2,CBE,3100,Y
BioMolecular Engineering Version S1,3,2,CBE,3300,Y
BioMolecular Engineering Version S1,3,2,CBE,3400,Y
BioMolecular Engineering Version S1,3,2,CBE,3500,Y
BioMolecular Engineering Version S1,3,2,COM,3001,Y
BioMolecular Engineering Version S1,4,1,CBE,4020,Y
BioMolecular Engineering Version S1,4,1,CBE,4100,Y
BioMolecular Engineering Version S1,4,1,CBE,3200,Y
BioMolecular Engineering Version S1,4,1,CBE,4901,Y
BioMolecular Engineering Version S1,4,1,CBE,4500,Y
BioMolecular Engineering Version S1,4,1,ELC,RCd,Y
BioMolecular Engineering Version S1,4,2,CBE,4200,Y
BioMolecular Engineering Version S1,4,2,CBE,4902,Y
BioMolecular Engineering Version S1,4,2,CBE,4600,Y
BioMolecular Engineering Version S1,4,2,ELC,Curi,Y
BioMolecular Engineering Version S1,4,2,ELC,Ethi,Y
