# ELC-Tech
ARE-2851,Architectural Graphics
ARE-2852,Building Information Modeling
ARE-3101,Principles of Electrical Engineering for Buildings
ARE-3121,Design of Communication and Life Safety Systems
ARE-3151,Design of Lighting Systems
ARE-3161,Design of Power Systems
ARE-3401,Principles of Mechanical Engineering for Buildings
ARE-3441,Design of Fire Protection and Life Safety Systems
ARE-3451,Design of Mechanical Systems
ARE-3461,Design of Plumbing Systems
ARE-3821,Architectural History
ARE-4321,Soil Mechanics and Foundations
BIE-2100,Principles and Applications of Biotechnology
BIE-2410,Thermodynamics I
BIE-2510,Transport Phenomena I
BIE-3100,Cell Culture and Tissue Engineering
BIE-3200,Biopolymer and Nanomaterial Engineering
BIE-3300,Bioinformatics
BIE-3400,Kinetics and Bioreactor Design
BIE-3420,Thermodynamics II
BIE-3500,Unit Operations
BIE-3520,Transport Phenomena II
BIE-4100,Synthetic Biology and Metabolic Engineering
BIE-4200,Engineering Controlled Drug Delivery and Nanomedicine
BIE-4500,Process Engineering Lab
BIE-4600,Bio Process Control
BME-2961,Introduction to Human Body Systems for Radiological Applications
BME-2963,Fundamentals of Medical Imaging and Imaging AI
BME-3010,Medical Device Regulation and Standards
BME-3210,Medical Imaging Systems
BME-3410,Biomechanics
BME-3510,Biotransport Phenomena
BME-3610,Biomaterials
BME-4410,Advanced Biomechanics
BME-4710,Biomedical Instrumentation II
BME-4910,Lasers: Medical Applications
CAE-2411,Thermal Sciences
CAE-2511,Statics
CAE-2512,Mechanics of Materials
CAE-2711,Fluid Mechanics
CAE-3501,Principles of Structural Engineering
CAE-3511,Analysis of Structures
CAE-3521,Design of Reinforced Concrete Structures
CAE-3561,Design of Steel Structures
CAE-3861,Specifications and the Project Manual
CAE-3891,Introduction to Disaster Relief and Global Sustainable Development
CAE-4811,Real Estate Development Economics
CAE-4861,Construction Law and Contracts
CAE-4881,Sustainability and Resilience
CPE-3300,Computer Networking
CPE-4510,Superscalar, Multicore, and Multiprocessor Architecture
CPE-4520,Memory System and I/O System Architecture
CPE-4610,Embedded Systems Fabrication
CPE-4800,Information Security
CPE-4980,Topics in Computer Engineering*
CPE-4981,Topics in Computer Engineering with Lab*
CPE-4999,Computer Engineering Independent Study
CSC-2611,AI Tools
CSC-2621,Introduction to Data Science
CSC-2661,Python for AI
CSC-2663,Machine Learning Techniques
CSC-2980,Topics in Computer Science*
CSC-2981,Topics in Computer Science with Lab*
CSC-3210,Operating Systems
CSC-3310,Algorithms and Advanced Data Structures
CSC-3320,Databases
CSC-3511,Security and Networking
CSC-4201,Microservices and Cloud Computing
CSC-4241,GPU Programming
CSC-4243,Compiler Construction
CSC-4341,Competitive Programming
CSC-4601,Theory of Machine Learning
CSC-4611,Introduction to Deep Learning
CSC-4631,Artificial Intelligence
CSC-4641,Natural Language Processing
CSC-4651,Deep Learning in Signal Processing
CSC-4801,Data Science Practicum
CSC-4911,Mobile Application Development
CSC-4941,Robotics
CSC-4980,Topics in Computer Science*
CSC-4981,Topics in Computer Science with Lab*
CSC-4999,Computer Science Independent Study
CVE-2851,Introduction to Civil 3D
CVE-2852,Introduction to Geographic Information Systems (GIS)
CVE-3201,Principles of Environmental Engineering
CVE-3251,Design of Municipal Potable Water and Wastewater Treatment Plants
CVE-3301,Principles of Soils and Geotechnical Engineering
CVE-3601,Principles of Transportation Engineering
CVE-3611,Traffic Engineering
CVE-3661,Geometric Design of Roadways
CVE-3701,Principles of Water Resources Engineering
CVE-3721,Analysis and Design of Potable Water Distribution Systems and Wastewater Collection Systems
CVE-3741,Design of Stormwater Management Systems
CVE-3811,Principles of Site Development
ECB-4200,Engineering Applications of MATLAB
ELE-4142,Modern Electronic Systems
ELE-4240,Advanced Electromagnetics and Antenna Theory
ELE-4300,Principles of Communications
ELE-4320,Applications of DSP
ELE-4403,Specialty Electric Machines
ELE-4440,Power Electronics
ELE-4447,Power System Models and Analysis
ELE-4451,Grid Stability
ELE-4480,Electrical Power Systems Quality
ELE-4610,Advanced Programming for EEs
ELE-4630,Advanced Embedded Systems
ELE-4701,Control Systems Applications
ELE-4980,Topics in Electrical Engineering*
ELE-4981,Topics in Electrical Engineering with Laboratory*
ELE-4999,Electrical Engineering Independent Study
IDS-3901,Interdisciplinary Design
IND-2030,Applied Statistics for Industrial Engineers
IND-2700,Engineering Economics
IND-3210,Automation Technologies
IND-3400,Quality Systems
IND-3410,Design of Experiments and Data Analysis for Engineers
IND-3510,Fundamentals of Enterprise Operations for Engineers
IND-3600,Ergonomics and Work Methods
IND-3700,Project Management for Systems Change
IND-3810,Process Modelling and Optimization
IND-4110,Research Methods
IND-4120,Healthcare Systems Engineering
IND-4210,Computer-Aided Manufacturing/CNC Machining/Additive Manufacturing
IND-4310,Production Planning and Inventory Control
IND-4320,Facilities Design
IND-4330,Modern Manufacturing Processes
IND-4410,Six Sigma for Engineers
IND-4430,Lean Manufacturing Enterprise for Engineers
IND-4610,Safety Systems Engineering
IND-4621,Sociotechnical Systems Engineering
IND-4622,Organization and Job Design
IND-4630,Product Design and Development Processes
IND-4710,Financial Engineering
IND-4720,Supply Chain Engineering
IND-4830,Process Simulation
IND-4840,Advanced Simulation
MEC-2010,Engineering Mechanics I: Statics
MEC-2020,Engineering Mechanics II: Dynamics
MEC-2030,Mechanics of Materials
MEC-2110,Thermodynamics I
MEC-2501,Statics and Mechanics of Materials
MEC-3040,Computer-Aided Design of Machines
MEC-3060,Design of Machine Components
MEC-3120,Fluid Mechanics
MEC-3130,Heat Transfer
MEC-3140,Thermodynamics II
MEC-3210,Material Science
MEC-3220,Materials and Manufacturing Processes
MEC-3320,Dynamic Systems
MEC-4060,Finite Element Analysis
MEC-4160,Computational Fluid Dynamics
MEC-4270,Fatigue and Fracture in Mechanical Design
MEC-4350,Mechanical System Simulation
MEC-4470,Introduction to Robotics
MEC-4670,Experimental Stress Analysis
MEC-4671,Vibration Control
MEC-4672,Applications in Finite Element Modeling
MEC-4673,Advanced Machine Design
MEC-4674,Medical Applications in Mechanical Engineering
MEC-4675,Vehicle Dynamics
MEC-4676,Composite Materials
MEC-4677,Applied Numerical Methods
MEC-4678,Data and Mechanical Engineering
MEC-4770,Fluid Power Systems
MEC-4810,Thermo-Fluid Systems Lab
MEC-4870,HVAC Systems Design
MEC-4871,Aerodynamics
MEC-4872,Compressible Flow
MEC-4873,Gas Turbines and Aircraft Engines
MEC-4874,Renewable and Sustainable Energy Systems
MEC-4875,Internal Combustion Engines
MTH-2310,Discrete Mathematics
MTH-2340,Linear Algebra with Applications
MTH-3340,Abstract Algebra with Applications
MTH-3410,Applied Regression Analysis
MTH-3999,Mathematics Independent Study*
MTH-4130,Complex Analysis
MTH-4150,Partial Differential Equations
MTH-4980,Topics in Mathematics*
MTH-4999,Mathematics Independent Study*
PHY-2600,Introduction to Optics and Photonics
PHY-3530,Quantum and Modern Physics
PHY-3550,Nuclear Physics
PHY-3600,Lasers and Applications
PHY-3810,Introduction to Biophysics
PHY-3910,Astronomy and Astrophysics
PHY-4980,Topics in Physics*
PHY-4999,Physics Independent Study*
SWE-2410,Design and Cloud Patterns
SWE-2511,Web Applications
SWE-2710,Software Tools and Process
SWE-2721,Introduction to Software Verification
SWE-3411,Software Requirements and Architecture
SWE-3710,Software Development Laboratory I
SWE-3720,Software Development Laboratory II
SWE-4211,Real-time Systems
SWE-4411,Game Development
SWE-4511,DevSecOps
SWE-4540,Network Security Tools and Practices
SWE-4980,Topics in Software Engineering
SWE-4981,Topics in Software Engineering with Lab
SWE-4999,Software Engineering Independent Study*
XXX-NONE
semesters/ee/ELC-EECS.csv
semesters/ee/EL-Tech.csv
