# Curriculum,Year,Term,Prefix,Number,MustHave
https://catalog.msoe.edu/preview_program.php?catoid=40&poid=2045
Computer Engineering and Computer Science Dual Degree Version S1,1,1,COM,1001,Y
Computer Engineering and Computer Science Dual Degree Version S1,1,1,CPE,1500,Y
Computer Engineering and Computer Science Dual Degree Version S1,1,1,CSC,1110,Y
Computer Engineering and Computer Science Dual Degree Version S1,1,1,MTH,1110,Y
Computer Engineering and Computer Science Dual Degree Version S1,1,2,CPE,1510,Y
Computer Engineering and Computer Science Dual Degree Version S1,1,2,CSC,1120,Y
Computer Engineering and Computer Science Dual Degree Version S1,1,2,MTH,1120,Y
Computer Engineering and Computer Science Dual Degree Version S1,1,2,PHY,1110,Y
Computer Engineering and Computer Science Dual Degree Version S1,2,1,CSC,2210,Y
Computer Engineering and Computer Science Dual Degree Version S1,2,1,CSC,2611,Y
Computer Engineering and Computer Science Dual Degree Version S1,2,1,IDS,2020,Y
Computer Engineering and Computer Science Dual Degree Version S1,2,1,MTH,2140,Y
Computer Engineering and Computer Science Dual Degree Version S1,2,1,PHY,1120,Y
Computer Engineering and Computer Science Dual Degree Version S1,2,2,CPE,2610,Y
Computer Engineering and Computer Science Dual Degree Version S1,2,2,CSC,2621,Y
Computer Engineering and Computer Science Dual Degree Version S1,2,2,ELE,2001,Y
Computer Engineering and Computer Science Dual Degree Version S1,2,2,MTH,2130,Y
Computer Engineering and Computer Science Dual Degree Version S1,3,1,CPE,3600,Y
Computer Engineering and Computer Science Dual Degree Version S1,3,1,CSC,3210,Y
Computer Engineering and Computer Science Dual Degree Version S1,3,1,ELE,2011,Y
Computer Engineering and Computer Science Dual Degree Version S1,3,1,MTH,2480,Y
Computer Engineering and Computer Science Dual Degree Version S1,3,1,SWE,2710,Y
Computer Engineering and Computer Science Dual Degree Version S1,3,2,COM,2001,Y
Computer Engineering and Computer Science Dual Degree Version S1,3,2,CPE,3300,Y
Computer Engineering and Computer Science Dual Degree Version S1,3,2,CSC,4801,Y
Computer Engineering and Computer Science Dual Degree Version S1,3,2,ELE,3101,Y
Computer Engineering and Computer Science Dual Degree Version S1,3,2,ELE,3300,Y
Computer Engineering and Computer Science Dual Degree Version S1,4,1,COM,3001,Y
Computer Engineering and Computer Science Dual Degree Version S1,4,1,CSC,3511,Y
Computer Engineering and Computer Science Dual Degree Version S1,4,1,ELE,3320,Y
Computer Engineering and Computer Science Dual Degree Version S1,4,1,MTH,2310,Y
Computer Engineering and Computer Science Dual Degree Version S1,4,1,SWE,2410,Y
Computer Engineering and Computer Science Dual Degree Version S1,4,2,BUS,2411,Y
Computer Engineering and Computer Science Dual Degree Version S1,4,2,CSC,3310,Y
Computer Engineering and Computer Science Dual Degree Version S1,4,2,CSC,3320,Y
Computer Engineering and Computer Science Dual Degree Version S1,4,2,ELC,Ethi,Y
Computer Engineering and Computer Science Dual Degree Version S1,4,2,MTH,2340,Y
Computer Engineering and Computer Science Dual Degree Version S1,5,1,BUS,3420,Y
Computer Engineering and Computer Science Dual Degree Version S1,5,1,CPE,4901,Y
Computer Engineering and Computer Science Dual Degree Version S1,5,1,CSC,4601,Y
Computer Engineering and Computer Science Dual Degree Version S1,5,1,CSC,4631,Y
Computer Engineering and Computer Science Dual Degree Version S1,5,1,PHY,3700,Y
Computer Engineering and Computer Science Dual Degree Version S1,5,2,CPE,4800,Y
Computer Engineering and Computer Science Dual Degree Version S1,5,2,CPE,4902,Y
Computer Engineering and Computer Science Dual Degree Version S1,5,2,CSC,4611,Y
Computer Engineering and Computer Science Dual Degree Version S1,5,2,ELC,Curi,Y
Computer Engineering and Computer Science Dual Degree Version S1,5,2,ELC,Divs,Y
