# Curriculum,Year,Term,Prefix,Number,MustHave
https://catalog.msoe.edu/preview_program.php?catoid=31&poid=1686
Biomedical Engineering Version S1,1,1,BIO,1110,Y
Biomedical Engineering Version S1,1,1,BME,1010,Y
Biomedical Engineering Version S1,1,1,MTH,1110,Y
Biomedical Engineering Version S1,1,1,PHY,1110,Y
Biomedical Engineering Version S1,1,2,CSC,1310,Y
Biomedical Engineering Version S1,1,2,COM,1001,Y
Biomedical Engineering Version S1,1,2,ELE,2001,Y
Biomedical Engineering Version S1,1,2,MTH,1120,Y
Biomedical Engineering Version S1,1,2,ELC,Curi,Y
Biomedical Engineering Version S1,2,1,BME,2310,Y
Biomedical Engineering Version S1,2,1,COM,2001,Y
Biomedical Engineering Version S1,2,1,ELE,2011,Y
Biomedical Engineering Version S1,2,1,MTH,2140,Y
Biomedical Engineering Version S1,2,1,PHY,1120,Y
Biomedical Engineering Version S1,2,2,BIO,2510,Y
Biomedical Engineering Version S1,2,2,CHM,1010,Y
Biomedical Engineering Version S1,2,2,IDS,2020,Y
Biomedical Engineering Version S1,2,2,MEC,2010,Y
Biomedical Engineering Version S1,2,2,MTH,2480,Y
Biomedical Engineering Version S1,2,2,ELC,Divs,Y
Biomedical Engineering Version S1,3,1,BIO,2520,Y
Biomedical Engineering Version S1,3,1,BME,3510,Y
Biomedical Engineering Version S1,3,1,BME,3710,Y
Biomedical Engineering Version S1,3,1,ELE,3300,Y
Biomedical Engineering Version S1,3,1,ELC,Ethi,Y
Biomedical Engineering Version S1,3,2,BME,3010,Y
Biomedical Engineering Version S1,3,2,BME,3310,Y
Biomedical Engineering Version S1,3,2,BME,3410,Y
Biomedical Engineering Version S1,3,2,COM,3001,Y
Biomedical Engineering Version S1,3,2,ELE,3320,Y
Biomedical Engineering Version S1,4,1,BME,3210,Y
Biomedical Engineering Version S1,4,1,BME,3610,Y
Biomedical Engineering Version S1,4,1,BME,4710,Y
Biomedical Engineering Version S1,4,1,BME,4901,Y
Biomedical Engineering Version S1,4,1,ELC,Tech,Y
Biomedical Engineering Version S1,4,2,BME,4110,Y
Biomedical Engineering Version S1,4,2,BME,4902,Y
Biomedical Engineering Version S1,4,2,ELC,RCd,Y
Biomedical Engineering Version S1,4,2,ELC,Tech,Y
Biomedical Engineering Version S1,4,2,ELC,Free,Y
